Kline_analysis_depression
…
#pca.nb$scores

NB_f <- Kline_report %>% 
  select(ID, neg.bprs) %>% 
  bind_cols(as_tibble(pca.nb$scores)) %>% 
  rename(neg.factor = PC1)
NB_f

## # A tibble: 70 x 6
##       ID BPRS1.03 BPRS1.13 BPRS1.16 BPRS1.17 neg.factor
##    <dbl>    <dbl>    <dbl>    <dbl>    <dbl>      <dbl>
##  1     1        1        4        2        1     1.06  
##  2     2        2        2        3        1     0.655 
##  3     3        1        2        5        3     0.767 
##  4     4        3        2        5        1     1.18  
##  5     5        4        2        3        1     0.304 
##  6     6        1        3        1        2     0.0318
##  7     7        3        1        4        5    -0.991 
##  8     8        3        1        3        3    -0.577 
##  9     9        4        1        3        2    -0.369 
## 10    10        2        3        2        1     0.592 
## # ... with 60 more rows
…
dep.f <- Kline_report %>% select(ID, pos.bprs)%>%
  bind_cols(NB_f %>% select(neg.factor)) %>% 
  bind_cols(as_tibble(pca.db$scores)) %>% 
  rename( dep.factor= PC1) %>% 
  select(ID, everything())

dep.f

## # A tibble: 70 x 5
##       ID BPRS1.05 BPRS1.09 neg.factor dep.factor
##    <dbl>    <dbl>    <dbl>      <dbl>      <dbl>
##  1     1        4        4     1.06       0.858 
##  2     2        3        2     0.655     -0.167 
##  3     3        1        4     0.767     -0.0572
##  4     4        3        3     1.18       0.302 
##  5     5        4        5     0.304      0.957 
##  6     6        3        5     0.0318     0.601 
##  7     7        5        5    -0.991      0.860 
##  8     8        1        1    -0.577     -1.39  
##  9     9        2        3    -0.369     -0.423 
## 10    10        4        5     0.592      1.04  
## # ... with 60 more rows
…
