FQ and R per card - Kline Dataset
…
## Joining, by = "RID"

# FINAL DATA
data <- kline %>% select(ID, Card, Rn, FQ) %>% 
  group_by(ID, Card) %>% 
  mutate(Rn_card = 1:n()) %>% 
  ungroup() %>% 
  filter(!is.na(FQ), FQ != 9, Rn_card <= 4, FQ != 0) %>% 
  mutate(FQ2 = case_when(FQ == 3 ~ 3,
                         FQ == 2 ~ 3,
                         FQ == 1 ~ 1))
data

## # A tibble: 1,321 x 6
##       ID  Card    Rn    FQ Rn_card   FQ2
##    <dbl> <dbl> <dbl> <dbl>   <int> <dbl>
##  1     1     1     1     3       1     3
##  2     1     1     2     3       2     3
##  3     1     1     3     1       3     1
##  4     1     2     4     2       1     3
##  5     1     2     5     2       2     3
##  6     1     3     6     3       1     3
##  7     1     3     7     3       2     3
##  8     1     4     8     3       1     3
##  9     1     4     9     1       2     1
## 10     1     5    10     3       1     3
## # ... with 1,311 more rows
…
